Dependencies of ca.mcgill.sel.ucm.edit
==================================
ca.mcgill.sel.core.provider
ca.mcgill.sel.ucm.util
org.eclipse.emf.common.notify
org.eclipse.emf.common.util
org.eclipse.emf.ecore
org.eclipse.emf.edit.provider
----------------------------------
 
 
